<?xml version="1.0" encoding="utf-8"?>
<svg version="1.1" id="Layer_1"
	xmlns="http://www.w3.org/2000/svg"
	xmlns:xlink="http://www.w3.org/1999/xlink" x="0px" y="0px" viewBox="0 0 122.88 117.99" style="enable-background:new 0 0 122.88 117.99" xml:space="preserve">
	<style type="text/css"><![CDATA[
	.st0{fill:#393939;}
	.st1{fill-rule:evenodd;clip-rule:evenodd;fill:#FF7900;}
]]>	</style>
	<g>
		<path class="st0" d="M68.21,3.97c0-2.18,2.15-3.97,4.84-3.97c2.68,0,4.84,1.77,4.84,3.97v17.35c0,2.18-2.15,3.97-4.84,3.97 c-2.68,0-4.84-1.77-4.84-3.97V3.97L68.21,3.97L68.21,3.97z M13.17,56.16c-0.27,0-0.52-1.2-0.52-2.68s0.22-2.67,0.52-2.67h13.2 c0.27,0,0.52,1.2,0.52,2.67c0,1.48-0.22,2.68-0.52,2.68H13.17L13.17,56.16L13.17,56.16z M34.21,56.16c-0.27,0-0.52-1.2-0.52-2.68 s0.22-2.67,0.52-2.67h13.2c0.27,0,0.52,1.2,0.52,2.67c0,1.48-0.22,2.68-0.52,2.68H34.21L34.21,56.16L34.21,56.16z M55.25,56.16 c-0.27,0-0.52-1.2-0.52-2.68s0.21-2.67,0.52-2.67h13.2c0.27,0,0.52,1.19,0.52,2.66c-1.32,0.82-2.59,1.72-3.81,2.69H55.25 L55.25,56.16L55.25,56.16z M13.2,71.52c-0.27,0-0.52-1.2-0.52-2.68s0.22-2.68,0.52-2.68h13.2c0.27,0,0.52,1.2,0.52,2.68 s-0.22,2.68-0.52,2.68H13.2L13.2,71.52L13.2,71.52z M34.24,71.52c-0.27,0-0.52-1.2-0.52-2.68s0.22-2.68,0.52-2.68h13.2 c0.27,0,0.52,1.2,0.52,2.68s-0.22,2.68-0.52,2.68H34.24L34.24,71.52L34.24,71.52z M13.23,86.88c-0.27,0-0.52-1.2-0.52-2.68 s0.22-2.68,0.52-2.68h13.2c0.27,0,0.52,1.2,0.52,2.68s-0.22,2.68-0.52,2.68H13.23L13.23,86.88L13.23,86.88z M34.27,86.88 c-0.27,0-0.52-1.2-0.52-2.68s0.22-2.68,0.52-2.68h13.2c0.27,0,0.52,1.2,0.52,2.68s-0.22,2.68-0.52,2.68H34.27L34.27,86.88 L34.27,86.88z M24.76,3.97C24.76,1.78,26.92,0,29.6,0c2.68,0,4.84,1.77,4.84,3.97v17.35c0,2.18-2.16,3.97-4.84,3.97 c-2.68,0-4.84-1.77-4.84-3.97V3.97L24.76,3.97L24.76,3.97z M5.33,37.93h92.12V17.96c0-0.69-0.28-1.28-0.71-1.72 c-0.44-0.44-1.07-0.71-1.72-0.71h-8.83c-1.48,0-2.68-1.2-2.68-2.68c0-1.48,1.21-2.68,2.68-2.68h8.83c2.16,0,4.1,0.87,5.52,2.29 c1.42,1.42,2.29,3.36,2.29,5.52v31.71c-1.76-0.61-3.57-1.1-5.43-1.46v-4.95h0.06H5.33V95c0,0.69,0.27,1.28,0.71,1.72 c0.44,0.44,1.07,0.71,1.72,0.71h43.78c0.5,1.86,1.13,3.67,1.88,5.42H7.81c-2.15,0-4.1-0.87-5.52-2.29C0.87,99.15,0,97.21,0,95.05 V17.98c0-2.15,0.87-4.1,2.29-5.52c1.42-1.42,3.36-2.29,5.52-2.29h9.43c1.48,0,2.68,1.2,2.68,2.68c0,1.48-1.2,2.68-2.68,2.68H7.81 c-0.69,0-1.28,0.27-1.72,0.71s-0.71,1.07-0.71,1.72v19.97L5.33,37.93L5.33,37.93L5.33,37.93z M42.17,15.52 c-1.48,0-2.68-1.2-2.68-2.68c0-1.48,1.2-2.68,2.68-2.68h17.98c1.48,0,2.68,1.2,2.68,2.68c0,1.48-1.2,2.68-2.68,2.68H42.17 L42.17,15.52L42.17,15.52z"/>
		<path class="st1" d="M91.64,55.53c4.22,0,8.26,0.84,11.94,2.37c3.84,1.58,7.27,3.9,10.15,6.78c2.87,2.87,5.19,6.32,6.78,10.14 c1.53,3.69,2.37,7.72,2.37,11.94c0,4.22-0.84,8.26-2.37,11.94c-1.59,3.83-3.9,7.27-6.78,10.15c-2.88,2.87-6.32,5.19-10.14,6.78 c-3.69,1.53-7.72,2.37-11.94,2.37s-8.26-0.84-11.94-2.37c-3.83-1.59-7.27-3.9-10.15-6.78c-2.88-2.87-5.19-6.32-6.78-10.15 c-1.53-3.69-2.37-7.72-2.37-11.94c0-4.22,0.84-8.25,2.37-11.94c1.59-3.83,3.9-7.27,6.78-10.15c2.87-2.87,6.32-5.19,10.14-6.78 C83.39,56.37,87.41,55.53,91.64,55.53L91.64,55.53z M88.38,74.63c0-0.49,0.1-0.96,0.28-1.4c0.19-0.45,0.46-0.85,0.79-1.19 s0.74-0.61,1.19-0.79c0.44-0.18,0.91-0.28,1.4-0.28s0.96,0.1,1.4,0.28c0.46,0.19,0.86,0.46,1.19,0.79 c0.33,0.33,0.61,0.74,0.79,1.19c0.18,0.43,0.28,0.91,0.28,1.4v13.14l8.28,4.38c0.07,0.04,0.14,0.09,0.21,0.13 c0.38,0.25,0.69,0.56,0.94,0.9c0.27,0.37,0.46,0.79,0.57,1.23c0.11,0.45,0.14,0.93,0.08,1.4c-0.06,0.46-0.21,0.91-0.45,1.32 l-0.09,0.15l-0.07,0.09c-0.25,0.36-0.55,0.67-0.88,0.9c-0.37,0.27-0.79,0.46-1.22,0.57c-0.45,0.11-0.93,0.14-1.4,0.08 c-0.46-0.06-0.91-0.21-1.32-0.45l-10.04-5.37c-0.29-0.15-0.55-0.34-0.77-0.56c-0.23-0.22-0.44-0.47-0.61-0.75l-0.02-0.04 c-0.17-0.28-0.3-0.57-0.39-0.88c-0.09-0.32-0.14-0.65-0.14-0.99l0,0L88.38,74.63L88.38,74.63L88.38,74.63z"/>
	</g>
</svg>